<svg width="19" height="16" viewBox="0 0 19 16" fill="none" xmlns="http://www.w3.org/2000/svg">
<path d="M18.3837 8.49104C18.7743 8.10052 18.7743 7.46735 18.3837 7.07683L12.0198 0.712868C11.6292 0.322343 10.9961 0.322343 10.6056 0.712868C10.215 1.10339 10.215 1.73656 10.6056 2.12708L16.2624 7.78394L10.6056 13.4408C10.215 13.8313 10.215 14.4645 10.6056 14.855C10.9961 15.2455 11.6292 15.2455 12.0198 14.855L18.3837 8.49104ZM0.582031 8.78394H17.6766V6.78394H0.582031V8.78394Z" fill="black"/>
</svg>
